{
  "count": 104,
  "next": "http://192.168.1.7:8000/goods/?page=2",
  "previous": null,
  "results": [
    {
      "id": 1,

      "images": [
        {
          "image": "http://192.168.2.102:8000/media/goods/images/1_P_1449024889889.jpg"
        },
        {
          "image": "http://192.168.2.102:8000/media/goods/images/1_P_1449024889264.jpg"
        },
        {
          "image": "http://192.168.2.102:8000/media/goods/images/1_P_1449024889726.jpg"
        }
      ],
      "goods_sn": "",
      "name": "新鲜水果甜蜜香脆单果约800克",
      "click_num": 0,
      "sold_num": 0,
      "count":1,
      "fav_num": 0,
      "goods_num": 0,
      "market_price": 232.0,
      "shop_price": 156.0,
      "goods_brief": "食用百香果可以增加胃部饱腹感，减少余热量的摄入，还可以吸附胆固醇和胆汁之类有机分子，抑制人体对脂肪的吸收。因此，长期食用有利于改善人体营养吸收结构，降低体内脂肪，塑造健康优美体态。",
      "goods_desc": "食用百香果可以增加胃部饱腹感",
      "ship_free": true,
      "goods_front_image": "http://192.168.2.102:8000/media/goods/images/1_P_1449024889889.jpg",
      "is_new": false,
      "is_hot": false,
      "add_time": "2018-01-22T19:12:25.577566"
    },
    {
      "id": 2,

      "images": [
        {
          "image": "http://192.168.2.102:8000/media/goods/images/2_P_1448945810202.jpg"
        },
        {
          "image": "http://192.168.2.102:8000/media/goods/images/2_P_1448945810814.jpg"
        }
      ],
      "goods_sn": "",
      "name": "田然牛肉大黄瓜条生鲜牛肉冷冻真空黄牛",
      "click_num": 0,
      "sold_num": 0,
      "fav_num": 0,
      "goods_num": 0,
      "market_price": 106.0,
      "shop_price": 88.0,
      "goods_brief": "前腿+后腿+羊排共8斤，原生态大山放牧羊羔，曾经的皇室贡品，央视推荐，2005年北京招待全球财金首脑。五层专用包装箱+真空包装+冰袋+保鲜箱+顺丰冷链发货，路途保质期8天",
      "goods_desc": "原生态大山放牧羊羔",
      "ship_free": true,
      "goods_front_image": "http://192.168.2.102:8000/media/goods/images/2_P_1448945810202.jpg",
      "is_new": false,
      "is_hot": false,
      "count":1,

      "add_time": "2018-01-22T19:12:25.606197"
    },
    {
      "id": 3,

      "images": [
        {
          "image": "http://192.168.2.102:8000/media/goods/images/7_P_1448945104883.jpg"
        },
        {
          "image": "http://192.168.2.102:8000/media/goods/images/7_P_1448945104734.jpg"
        }
      ],
      "goods_sn": "",
      "name": "酣畅家庭菲力牛排10片澳洲生鲜牛肉团购套餐",
      "click_num": 0,
      "sold_num": 0,
      "fav_num": 0,
      "goods_num": 0,
      "count":1,

      "market_price": 286.0,
      "shop_price": 238.0,
      "goods_brief": "",
      "goods_desc": "好吃不贵，便宜实惠",
      "ship_free": true,
      "goods_front_image": "http://192.168.2.102:8000/media/goods/images/7_P_1448945104883.jpg",
      "is_new": false,
      "is_hot": false,
      "add_time": "2018-01-22T19:12:25.609748"
    },
    {
      "id": 4,

      "images": [
        {
          "image": "http://192.168.2.102:8000/media/goods/images/47_P_1448946213263.jpg"
        },
        {
          "image": "http://192.168.2.102:8000/media/goods/images/47_P_1448946213157.jpg"
        }
      ],
      "goods_sn": "",
      "name": "日本蒜蓉粉丝扇贝270克6只装",
      "click_num": 0,
      "sold_num": 0,
      "fav_num": 0,
      "goods_num": 0,
      "count":1,

      "market_price": 156.0,
      "shop_price": 108.0,
      "goods_brief": "",
      "goods_desc": "好吃不贵，便宜实惠",
      "ship_free": true,
      "goods_front_image": "http://192.168.2.102:8000/media/goods/images/47_P_1448946213263.jpg",
      "is_new": false,
      "is_hot": false,
      "add_time": "2018-01-22T19:12:25.613058"
    },
    {
      "id": 5,

      "images": [
        {
          "image": "http://192.168.2.102:8000/media/goods/images/10_P_1448944572085.jpg"
        },
        {
          "image": "http://192.168.2.102:8000/media/goods/images/10_P_1448944572532.jpg"
        },
        {
          "image": "http://192.168.2.102:8000/media/goods/images/10_P_1448944572872.jpg"
        }
      ],
      "goods_sn": "",
      "name": "内蒙新鲜牛肉1斤清真生鲜牛肉火锅食材",
      "click_num": 0,
      "sold_num": 0,
      "fav_num": 0,
      "goods_num": 0,
      "market_price": 106.0,
      "shop_price": 88.0,
      "count":2,

      "goods_brief": "",
      "goods_desc": "好吃不贵，便宜实惠",
      "ship_free": true,
      "goods_front_image": "http://192.168.2.102:8000/media/goods/images/10_P_1448944572085.jpg",
      "is_new": false,
      "is_hot": false,
      "add_time": "2018-01-22T19:12:25.616580"
    },
    {
      "id": 6,

      "images": [
        {
          "image": "http://192.168.2.102:8000/media/goods/images/4_P_1448945381985.jpg"
        },
        {
          "image": "http://192.168.2.102:8000/media/goods/images/4_P_1448945381013.jpg"
        }
      ],
      "goods_sn": "",
      "name": "乌拉圭进口牛肉卷特级肥牛卷",
      "click_num": 0,
      "sold_num": 0,
      "fav_num": 0,
      "goods_num": 0,
      "count":1,

      "market_price": 90.0,
      "shop_price": 75.0,
      "goods_brief": "",
      "goods_desc": "好吃不贵，便宜实惠",
      "ship_free": true,
      "goods_front_image": "http://192.168.2.102:8000/media/goods/images/4_P_1448945381985.jpg",
      "is_new": false,
      "is_hot": false,
      "add_time": "2018-01-22T19:12:25.620664"
    },
    {
      "id": 7,

      "images": [
        {
          "image": "http://192.168.2.102:8000/media/goods/images/8_P_1448945032810.jpg"
        },
        {
          "image": "http://192.168.2.102:8000/media/goods/images/8_P_1448945032646.jpg"
        }
      ],
      "goods_sn": "",
      "name": "五星眼肉牛排套餐8片装原味原切生鲜牛肉",
      "click_num": 0,
      "sold_num": 0,
      "fav_num": 0,
      "goods_num": 0,
      "market_price": 150.0,
      "shop_price": 125.0,
      "goods_brief": "",
      "goods_desc": " 好吃不贵，便宜实惠",
      "ship_free": true,
      "goods_front_image": "http://192.168.2.102:8000/media/goods/images/8_P_1448945032810.jpg",
      "is_new": false,
      "count":1,

      "is_hot": false,
      "add_time": "2018-01-22T19:12:25.623845"
    },
    {
      "id": 8,

      "images": [
        {
          "image": "http://192.168.2.102:8000/media/goods/images/11_P_1448944388277.jpg"
        },
        {
          "image": "http://192.168.2.102:8000/media/goods/images/11_P_1448944388034.jpg"
        },
        {
          "image": "http://192.168.2.102:8000/media/goods/images/11_P_1448944388201.jpg"
        }
      ],
      "goods_sn": "",
      "name": "澳洲进口120天谷饲牛仔骨4份原味生鲜",
      "click_num": 0,
      "sold_num": 0,
      "count":1,
      "fav_num": 0,
      "goods_num": 0,
      "market_price": 31.0,
      "shop_price": 26.0,
      "goods_brief": "",
      "goods_desc": "好吃不贵，便宜实惠",
      "ship_free": true,
      "goods_front_image": "http://192.168.2.102:8000/media/goods/images/11_P_1448944388277.jpg",
      "is_new": false,
      "is_hot": false,
      "add_time": "2018-01-22T19:12:25.627097"
    }
  ]
}